{
  "name": "teams",
  "base": "PersistedModel",
  "idInjection": true,
  "options": {
    "validateUpsert": true
  },
  "properties": {
    "nombre": {
      "type": "string",
      "required": true
    },
    "imgUrl": {
      "type": "string"
    },
    "deporte": {
      "type": "string",
      "required": true
    },
    "miembros": {
      "type": [
        "string"
      ]
    }
  },
  "validations": [],
  "relations": {},
  "acls": [],
  "methods": {}
}
